<svg width="16" height="16" viewBox="0 0 16 16" fill="none" xmlns="http://www.w3.org/2000/svg">
<g clip-path="url(#clip0)">
<path d="M12.5599 7.99968C12.5599 8.28643 12.4504 8.57315 12.2319 8.79177L5.35219 15.6714C4.91455 16.109 4.205 16.109 3.76755 15.6714C3.33009 15.2339 3.33009 14.5245 3.76755 14.0869L9.85509 7.99968L3.76776 1.91245C3.3303 1.47481 3.3303 0.765475 3.76776 0.328053C4.20522 -0.109795 4.91477 -0.109795 5.3524 0.328053L12.2321 7.20759C12.4507 7.42631 12.5599 7.71303 12.5599 7.99968Z" fill="black"/>
</g>
<defs>
<clipPath id="clip0">
<rect width="16" height="16" fill="white" transform="translate(0 16) rotate(-90)"/>
</clipPath>
</defs>
</svg>
